{
  "convertHtml": {
    "relativePaths": false
  },
  "debug": false,
  "domain": null,
  "lintScripts": false,
  "modelSource": null,
  "preprocessorLocations": [
    "assets"
  ],
  "preprocessorScriptOutput": "assets/scripts",
  "preprocessorStyleOutput": "assets/css",
  "projectDescription": "A page devoted to live examples of the chibi framework",
  "projectName": "chibi-examples",
  "publishedId": null,
  "serverHostname": null,
  "serverPort": null,
  "simpleModePartnerServer": null,
  "templateDefaultLayout": "layout",
  "templateDefaultPage": "index",
  "templateDirectory": "templates",
  "type": "mixture",
  "useCompass": true
}